1;Ionut;Aprogramatoarei
2;Ileana;Apetrei
3;Dan;Pop
4;Zaharia;Stancu
5;Cristian;Rotar
6;Andreea;Sechelaru
7;George;Ciofoaia
8;Loredana;Munteanu
9;Georgiana;Oana
10;Damian;Dandu
11;Alexandru;Botu
12;Diana;Zabulic
13;Adrian;Vasiliu